scenario,describe
0,"You woke up somewhere in a camp at the edge of the forest.
You don't remember anything. What happened?
-Hello, paladin! In front of you stands an old man who is sizing you up from head to toe.
-Your shining armor reminds me of the days of my youth
when I myself wielded the weapon of light and fought against all the evil of this world.
You're probably wondering what you're doing here, right? I'll explain everything to you.
But first, perhaps we should get to know each other.
My name is Daniel. And what do they call you, friend?"
1,"-Pleased to meet you, my friend. You ended up here as a result of a great magical catastrophe.
Clusters of evil mana have appeared in many places in the sky,
creating huge anomalies in our world... Undead monsters.
But perhaps let's stop at that for now. As you can see...
The old man pointed ahead, where you saw an ordinary, old, rotten skeleton in rusty armor,
with an equally rusty sword. The undead wailed, rose, and slowly moved in your direction.
Instantly, you decided to rise from the ground and face it.
-You are our only hope..." The old man said.
The problem was that your sword was lying right by the tree... right behind the skeleton.
You grabbed the first branch you could find and were ready to fight.
2,"-Good job, however, it wasn't a very demanding opponent.
Interesting choice of weapon, it's clear you're a skilled knight.
After a moment, the man noticed the wound on your shoulder.
-I see you've taken a hit. You probably haven't fully recovered from that anomaly yet.
Please, take this. The old man hands you a vial of mysterious red liquid.
-It's a healing potion. Drink it, and you'll definitely feel better and eliminate your pain.
Well done, paladin! Now you can leave our shelter. What do you want to do next?."
4,"You headed south and arrived at a real battlefield.
It's evident that there was a fight here between the undead and humans.
Everywhere you see piles of bones and bodies, and the smell of blood still lingered in the air.
In the distance, you noticed a cart with several barrels, crates,
but also a rather unusual small chest."
5,"When you opened the chest and took the valuable items, you also found a rather old parchment.
Upon unfolding it, you saw slightly shimmering letters, as if infused with magic,
but the script was unfamiliar to you.
After a moment of pondering the parchment, Daniel joined you.
-Impossible... This parchment precisely details the location of the Necromancer's fortress,
the one who caused all this catastrophe.
-It's incredible that this is exactly what we've been searching for for many years!
Paladin... You must take care of this. It's the final battle, one that only you can win.
You are our last hope. After a moment, he glanced at the sword.
-This sword... It's the legendary holy blade.
With it, you will surely prevail! The old man was nearly jumping with joy.
You decided to leave the battlefield. It's time for further adventure.
Time to arm yourself with a new weapon and defeat the necromancer. For victory and glory!"
6,"You marched straight north. The journey was neither easy nor forgiving.
You traversed dark forests, scorching sands of nomad desert, and the freezing Nordic mountains.
Finally, you found it. The massive fortress of the necromancer. It looked terrifying.
From afar, you could sense the chill of death, rotting bodies, and... powerful magic.
Fortunately, the power of light was on your side. The sword began to glow brighter and brighter.
Before you stood great, black gates. You saw skulls, bones adorning them, feeling the dark magic emanating from them.
Just beyond them awaited your destiny."
7,"As you attempted to enter, the gates remained unmoved.
You noticed the keyhole. Could this entire journey have been for naught?
Where could you find the key? Daniel, your traveling companion, turned to you.
-Hmm... Just beyond our camp, I heard sounds of a significant battle.
Perhaps we should return there and search for clues?
So, you headed back to the camp."
8,"As you attempted to enter, the gates remained unmoved. You noticed the keyhole.
You remembered finding a certain key in a chest on the deserted battlefield. Could it fit?
You tried, and... Success!
The gates opened before you, and you slowly stepped inside.
With each step, you felt increasing fear and unease.
Along the way, you passed human bodies, in the distance, you saw terrifying monsters and horrifying scenes.
After a few moments, a massive hall appeared before you. It looked incredible.
It was elegant, full of black, red, and rich decorations."
9,"When you entered the throne room, a dark figure appeared before you.
A true demon dressed in black robes, engulfed in black flames, wielding a massive scythe.
You felt an incredible fear. You couldn't move. The necromancer.
The necromancer surrounded by a horde of skeletons. You had no chance of survival.
Not even the divine sword would be able to defeat such a monster.
Skeletons rushed towards you,
and the necromancer himself appeared right behind you with a terrifying thirst for blood.
Daniel understood the situation. He grabbed you by the neck, and after a moment...
You found yourselves back in the camp. You teleported back somehow.
-We didn't stand a chance... He said, devastated.
After a moment, however, he took a deep breath and reached for one of his chests near the tent.
-I didn't want to use this because I don't fully understand the power of this item,
nor the consequences it will bring when you wear it.
The man handed you the golden ring. "This is the ring of the gods. They say it holds immense power.
-Get some rest, tomorrow we'll set out again. Put it on, and then we'll try again... Good night.
Night fell."
10,"When you finally put on the divine ring, you and Daniel rushed straight to the necromancer's fortress.
It was time for the ultimate battle! You entered the throne room, which was to be your grave.
Once again, a horde of skeletons charged at you, but this time you had the ring.
The ring exploded with immense, golden light, destroying all lesser evils in the vicinity.
Only the lord of the undead remained. The necromancer."
11,"Success! You defeated the greatest evil! Unfortunately, Daniel... did not survive.
In his final moments, a smile of gratitude and tears appeared on his face.
Thanks to you, the world is safe once again.
But... for how long?"